# Anjuta Version 1.2.3 
Compatibility Level: 1 

<PROJECT_DESCRIPTION_START>
A fast-user-switching applet for GNOME/GDM 2.6.<PROJECT_DESCRIPTION_END>
<CONFIG_PROGS_START>
<CONFIG_PROGS_END>
<CONFIG_LIBS_START>
<CONFIG_LIBS_END>
<CONFIG_HEADERS_START>
<CONFIG_HEADERS_END>
<CONFIG_CHARACTERISTICS_START>
<CONFIG_CHARACTERISTICS_END>
<CONFIG_LIB_FUNCS_START>
<CONFIG_LIB_FUNCS_END>
<CONFIG_ADDITIONAL_START>
<CONFIG_ADDITIONAL_END>
<CONFIG_FILES_START>
<CONFIG_FILES_END>
<MAKEFILE_AM_START>
<MAKEFILE_AM_END>

props.file.type=project

anjuta.version=1.2.3
anjuta.compatibility.level=1

project.name=fast-user-switch-applet
project.type=GENERIC
project.target.type=EXECUTABLE
project.version=0.0.1
project.author=James M. Cape
project.source.target=fast-user-switch-applet
project.has.gettext=1
project.gui.command=
project.programming.language=C
project.excluded.modules=intl

project.config.extra.modules.before=
project.config.extra.modules.after=
project.config.blocked=1
project.config.disable.overwriting=1 1 1 1 1 1 1 1 1 

project.menu.entry=fast-user-switch-applet
project.menu.group=Applications
project.menu.comment=No Comment
project.menu.icon=
project.menu.need.terminal=0

project.configure.options=
anjuta.program.arguments=
preferences.build.option.jobs=0
preferences.build.option.silent=0
preferences.build.option.autosave=1
preferences.anjuta.make.options=-k
preferences.make=make
preferences.build.option.keep.going=1
preferences.build.option.warn.undef=1
preferences.autoformat.custom.style= -gnu -l100
preferences.indent.opening=1
preferences.autoformat.disable=0
preferences.indent.automatic=1
preferences.use.tabs=1
preferences.indent.size=2
preferences.tabsize=8
preferences.indent.closing=1

module.include.name=.
module.include.type=
module.include.files=\
	src/fusa-user.h\
	src/fusa-user-menu-item.h\
	src/gdmcomm.h\
	src/fusa-utils.h\
	src/fusa-display.h\
	src/fusa-display-private.h\
	src/fusa-user-private.h\
	src/fusa-manager.h

module.source.name=.
module.source.type=
module.source.files=\
	src/applet.c\
	src/fusa-user.c\
	src/gdmcomm.c\
	src/testapp.c\
	src/fusa-utils.c\
	src/fusa-display.c\
	src/fusa-user-menu-item.c\
	src/fusa-manager.c

module.pixmap.name=.
module.pixmap.type=
module.pixmap.files=

module.data.name=.
module.data.type=
module.data.files=\
	data/GNOME_FastUserSwitchApplet.server.in.in\
	data/fast-user-switch-applet.schemas.in\
	data/GNOME_FastUserSwitchApplet.xml\
	data/ui.glade

module.help.name=.
module.help.type=
module.help.files=\
	help/C/fast-user-switch-applet.xml\
	help/C/legal.xml\
	help/fast-user-switch-applet.omf.in

module.doc.name=.
module.doc.type=
module.doc.files=\
	ChangeLog\
	TODO\
	README\
	HACKING\
	AUTHORS\
	NEWS\
	po/ChangeLog

module.po.files=\
	POTFILES.in

compiler.options.supports=
compiler.options.include.paths=\
	.\
	..
compiler.options.library.paths=
compiler.options.libraries=
compiler.options.libraries.selected=
compiler.options.defines=\
	HAVE_CONFIG_H
compiler.options.defines.selected=
compiler.options.warning.buttons=0 0 1 1 0 1 0 0 0 0 0 0 0 1 0 0 
compiler.options.optimize.buttons=0 0 1 0 
compiler.options.other.buttons=1 0 
compiler.options.other.c.flags=
compiler.options.other.l.flags=
compiler.options.other.l.libs=

project.src.paths=
